6 Projects Well Suited For | RStudio 2020 Internship Application
…
Also put some code here:

library(googlesheets4)
practice_sheet <- read_sheet("https://docs.google.com/spreadsheets/d/1_zRBFrB1au7qhxuDDfDuh_bPLGd6RLrwOL5oQ3sBBX4")

## Using an auto-discovered, cached token.
## To suppress this message, modify your code or options to clearly consent to the use of a cached token.
## See gargle's "Non-interactive auth" vignette for more details:
## https://gargle.r-lib.org/articles/non-interactive-auth.html
## The googlesheets4 package is using a cached token for ries9112@colorado.edu.

practice_sheet

## # A tibble: 2,421 x 17
##    Id    Name  Symbol  Rank `Price Usd` `Price Btc` `24h Volume Usd`
##    <chr> <chr> <chr>  <dbl>       <dbl>       <dbl>            <dbl>
##  1 bitc~ Bitc~ btc        1    9769.      1             40463828067 
##  2 ethe~ Ethe~ eth        2     269.      0.0275        19542499911 
##  3 xrp   XRP   xrp        3       0.274   0.0000280      2377865581 
##  4 bitc~ Bitc~ bch        4     383.      0.0392         4421385407 
##  5 bitc~ Bitc~ bsv        5     284.      0.0291         2228030328 
##  6 lite~ Lite~ ltc        6      75.5     0.00773        5638873067 
##  7 teth~ Teth~ usdt       7       1.00    0.000102      47741567290 
##  8 eos   EOS   eos        8       4.14    0.000424       3697914797 
##  9 bina~ Bina~ bnb        9      22.6     0.00231         409613428 
## 10 tezos Tezos xtz       10       3.19    0.000327        196594975.
## # ... with 2,411 more rows, and 10 more variables: `Market Cap Usd` <dbl>,
## #   `Circulating Supply` <dbl>, `Total Supply` <dbl>, `Max Supply` <dbl>,
## #   `Percent Change 1h` <dbl>, `Percent Change 24h` <dbl>, `Percent Change
## #   7d` <dbl>, last_updated <dttm>, `24h Volume Btc` <dbl>, `Market Cap
## #   Btc` <dbl>
…
